{
    "count": 600,
    "next": "https://contact.mediusware.com/api/contacts/?format=json&page=3",
    "previous": "https://contact.mediusware.com/api/contacts/?format=json",
    "results": [
        {
            "id": 21,
            "phone": "+880-115-550-4867",
            "country": { "id": 1, "name": "Bangladesh" }
        },
        {
            "id": 22,
            "phone": "+880-115-551-4553",
            "country": { "id": 1, "name": "Bangladesh" }
        },
        {
            "id": 23,
            "phone": "+880-115-557-9897",
            "country": { "id": 1, "name": "Bangladesh" }
        },
        {
            "id": 24,
            "phone": "+1-555-918-2344",
            "country": { "id": 2, "name": "United States" }
        },
        {
            "id": 25,
            "phone": "+1-555-184-9116",
            "country": { "id": 2, "name": "United States" }
        },
        {
            "id": 26,
            "phone": "+1-555-509-0696",
            "country": { "id": 2, "name": "United States" }
        },
        {
            "id": 27,
            "phone": "+1-555-883-1712",
            "country": { "id": 2, "name": "United States" }
        },
        {
            "id": 28,
            "phone": "+1-555-074-3935",
            "country": { "id": 2, "name": "United States" }
        },
        {
            "id": 29,
            "phone": "+1-555-457-2760",
            "country": { "id": 2, "name": "United States" }
        },
        {
            "id": 30,
            "phone": "+1-555-438-4930",
            "country": { "id": 2, "name": "United States" }
        },
        {
            "id": 31,
            "phone": "+1-555-186-7975",
            "country": { "id": 2, "name": "United States" }
        },
        {
            "id": 32,
            "phone": "+1-555-407-2361",
            "country": { "id": 2, "name": "United States" }
        },
        {
            "id": 33,
            "phone": "+1-555-967-0157",
            "country": { "id": 2, "name": "United States" }
        },
        {
            "id": 34,
            "phone": "+1-555-352-8256",
            "country": { "id": 2, "name": "United States" }
        },
        {
            "id": 35,
            "phone": "+1-555-939-5174",
            "country": { "id": 2, "name": "United States" }
        },
        {
            "id": 36,
            "phone": "+1-555-666-9482",
            "country": { "id": 2, "name": "United States" }
        },
        {
            "id": 37,
            "phone": "+1-555-950-7549",
            "country": { "id": 2, "name": "United States" }
        },
        {
            "id": 38,
            "phone": "+1-555-211-3144",
            "country": { "id": 2, "name": "United States" }
        },
        {
            "id": 39,
            "phone": "+1-555-897-4381",
            "country": { "id": 2, "name": "United States" }
        },
        {
            "id": 40,
            "phone": "+1-555-469-8888",
            "country": { "id": 2, "name": "United States" }
        }
    ]
}
